fr/miage/filestore/api/resources/StatusResource.class
fr/miage/filestore/file/FileItemAlreadyExistsException.class
fr/miage/filestore/api/template/TemplateBodyWriter.class
fr/miage/filestore/neighbourhood/NeighbourhoodServiceBean.class
fr/miage/filestore/store/index/IndexStoreListenerBean.class
fr/miage/filestore/auth/AuthenticationService.class
fr/miage/filestore/media/ImageItemNotFoundException.class
fr/miage/filestore/neighbourhood/entity/Neighbour.class
fr/miage/filestore/api/filter/VersionFilter.class
fr/miage/filestore/file/FileServiceMetricsWorker.class
fr/miage/filestore/store/index/IndexStoreResult.class
fr/miage/filestore/file/FileServiceException.class
fr/miage/filestore/file/entity/FileItem.class
fr/miage/filestore/file/FileItemNotEmptyException.class
fr/miage/filestore/api/validation/Filename.class
fr/miage/filestore/file/entity/FileItem$NameComparatorDesc.class
fr/miage/filestore/store/index/IndexStoreServiceWorkerBean$JobWorkerThread.class
fr/miage/filestore/api/resources/FilesResource.class
fr/miage/filestore/api/resources/VideosResource.class
fr/miage/filestore/api/dto/FileStoreStatus$Store.class
fr/miage/filestore/notification/listener/LoggerEventListener.class
fr/miage/filestore/media/VideoService.class
fr/miage/filestore/auth/entity/Profile.class
fr/miage/filestore/api/dto/ItemCollection.class
fr/miage/filestore/file/entity/FileItem$NameComparatorAsc.class
fr/miage/filestore/file/FileServiceMetricsBean.class
fr/miage/filestore/api/filter/OnlyOwner.class
fr/miage/filestore/store/index/IndexStoreObject$Scope.class
fr/miage/filestore/file/filter/FileFilter.class
fr/miage/filestore/api/resources/SearchResource.class
fr/miage/filestore/store/index/IndexStoreDocumentBuilder.class
fr/miage/filestore/api/mapper/FileServiceExceptionMapper.class
fr/miage/filestore/api/FilestoreAPI.class
fr/miage/filestore/notification/NotificationServiceBean.class
fr/miage/filestore/file/FileItemNotFoundException.class
fr/miage/filestore/notification/NotificationService.class
fr/miage/filestore/store/index/IndexStoreObject.class
fr/miage/filestore/file/Metric.class
fr/miage/filestore/api/dto/FileStoreStatus$Server.class
fr/miage/filestore/store/index/IndexStoreJob$Status.class
fr/miage/filestore/api/resources/ImagesResource.class
fr/miage/filestore/store/binary/BinaryStreamNotFoundException.class
fr/miage/filestore/api/filter/SecurityFilter.class
fr/miage/filestore/notification/entity/Event.class
fr/miage/filestore/file/FileServiceBean.class
fr/miage/filestore/media/MusicService.class
fr/miage/filestore/store/index/IndexStoreServiceWorkerBean.class
fr/miage/filestore/file/FileServiceMetrics.class
fr/miage/filestore/media/ImageService.class
fr/miage/filestore/media/MusicServiceBean.class
fr/miage/filestore/auth/AuthenticationServiceBean.class
fr/miage/filestore/neighbourhood/NeighbourhoodService.class
fr/miage/filestore/store/binary/BinaryStoreServiceBean.class
fr/miage/filestore/file/FileServiceMetricsBean$1.class
fr/miage/filestore/api/template/TemplateContent.class
fr/miage/filestore/api/dto/FileUploadForm.class
fr/miage/filestore/api/resources/NeighboursResource.class
fr/miage/filestore/store/index/IndexStoreJob.class
fr/miage/filestore/api/template/TemplateHelper.class
fr/miage/filestore/store/index/IndexStoreServiceBean.class
fr/miage/filestore/api/resources/MusicsResource.class
fr/miage/filestore/notification/NotificationServiceException.class
fr/miage/filestore/file/Metric$Type.class
fr/miage/filestore/store/binary/BinaryStoreServiceException.class
fr/miage/filestore/media/VideoServiceBean.class
fr/miage/filestore/store/index/IndexStoreException.class
fr/miage/filestore/api/template/Template.class
fr/miage/filestore/store/index/IndexStoreService.class
fr/miage/filestore/media/ImageServiceBean.class
fr/miage/filestore/neighbourhood/NeighbourhoodServiceException.class
fr/miage/filestore/store/binary/BinaryStoreService.class
fr/miage/filestore/api/mapper/FileNotFoundExceptionMapper.class
fr/miage/filestore/api/mapper/FileAlreadyExistsExceptionMapper.class
fr/miage/filestore/file/FileService.class
fr/miage/filestore/store/index/IndexStoreServiceWorker.class
fr/miage/filestore/api/dto/FileStoreStatus.class
