fr/miage/filestore/mock/MockedMemoryBinaryStore.class
fr/miage/filestore/store/binary/BinaryStoreServiceTest.class
fr/miage/filestore/api/TestFilesResource.class
fr/miage/filestore/file/FileServiceTest.class
